…
On ship there were approx 64% were men and 36% were women.

Ticket

cat_vars %>% 
  count(Ticket) %>% 
  mutate(prop = n/sum(n)) %>% 
  arrange(desc(prop))

## # A tibble: 929 x 3
##    Ticket           n    prop
##    <chr>        <int>   <dbl>
##  1 CA. 2343        11 0.00840
##  2 1601             8 0.00611
##  3 CA 2144          8 0.00611
##  4 3101295          7 0.00535
##  5 347077           7 0.00535
##  6 347082           7 0.00535
##  7 PC 17608         7 0.00535
##  8 S.O.C. 14879     7 0.00535
##  9 113781           6 0.00458
## 10 19950            6 0.00458
## # ... with 919 more rows
…
# Replace Age variable from the mice model.
df$Age <- mice_output$Age

# Show new number of missing Age values
sum(is.na(df$Age))

## [1] 0

Cabin

df %>% filter(is.na(Cabin))

## # A tibble: 1,014 x 11
##    Survived Pclass Name  Sex     Age SibSp Parch Ticket  Fare Cabin
##    <fct>    <fct>  <chr> <fct> <dbl> <dbl> <dbl> <chr>  <dbl> <chr>
##  1 0        3      Brau~ male     22     1     0 A/5 2~  7.25 <NA> 
##  2 1        3      Heik~ fema~    26     0     0 STON/~  7.92 <NA> 
##  3 0        3      Alle~ male     35     0     0 373450  8.05 <NA> 
##  4 0        3      Mora~ male     19     0     0 330877  8.46 <NA> 
##  5 0        3      Pals~ male      2     3     1 349909 21.1  <NA> 
##  6 1        3      John~ fema~    27     0     2 347742 11.1  <NA> 
##  7 1        2      Nass~ fema~    14     1     0 237736 30.1  <NA> 
##  8 0        3      Saun~ male     20     0     0 A/5. ~  8.05 <NA> 
##  9 0        3      Ande~ male     39     1     5 347082 31.3  <NA> 
## 10 0        3      Vest~ fema~    14     0     0 350406  7.85 <NA> 
## # ... with 1,004 more rows, and 1 more variable: Embarked <fct>
…
Logistic Regression

Support Vector Machine

Decision Tree model

Decision Trees are a non-parametric supervised learning method used for both classification and regression tasks. The goal is to create a model that predicts the value of a target variable by learning simple decision rules inferred from the data features.

The decision rules are generally in form of if-then-else statements. The deeper the tree, the more complex the rules and fitter the model.

To learn more about tree based models you can click here.

titanic_train

## # A tibble: 713 x 13
##    Survived Pclass Sex     Age SibSp Parch  Fare Embarked Title Mother
##    <fct>    <fct>  <fct> <dbl> <dbl> <dbl> <dbl> <chr>    <fct> <fct> 
##  1 0        3      male     22     1     0  7.25 3        Mr    No    
##  2 1        1      fema~    38     1     0 71.3  1        Mrs   No    
##  3 1        3      fema~    26     0     0  7.92 3        Miss  No    
##  4 1        1      fema~    35     1     0 53.1  3        Mrs   No    
##  5 0        3      male     35     0     0  8.05 3        Mr    No    
##  6 0        1      male     54     0     0 51.9  3        Mr    No    
##  7 0        3      male      2     3     1 21.1  3        Mast~ No    
##  8 1        3      fema~    27     0     2 11.1  3        Mrs   Yes   
##  9 1        2      fema~    14     1     0 30.1  1        Mrs   No    
## 10 1        3      fema~     4     1     1 16.7  3        Miss  No    
## # ... with 703 more rows, and 3 more variables: Solo <fct>,
## #   FamilyType <fct>, LifeStage <fct>
…
Logistic Regression

Logistic Regression is a binary classification algorithm used when the response variable is dichotomous (1 or 0). Inherently, it returns the set of probabilities of target class. But, we can also obtain response labels using a probability threshold value.

But Wait we cannot simply blindly fit the logistic regression. We need to check the assumptions.Let’s check logistic
regression assumption :-

Features should be independent from each other

Residual should not be autocorrelated

titanic_train %>% select_if(is.numeric)

## # A tibble: 713 x 4
##      Age SibSp Parch  Fare
##    <dbl> <dbl> <dbl> <dbl>
##  1    22     1     0  7.25
##  2    38     1     0 71.3 
##  3    26     0     0  7.92
##  4    35     1     0 53.1 
##  5    35     0     0  8.05
##  6    54     0     0 51.9 
##  7     2     3     1 21.1 
##  8    27     0     2 11.1 
##  9    14     1     0 30.1 
## 10     4     1     1 16.7 
## # ... with 703 more rows
…
